…
  # pivot the df to 'long' configuarion
  #
  df_long <- pivot_longer(
    cluster.tbl,
    cols = -position,           # All columns except 'position'
    names_to = "week",           # New column for week names
    values_to = "value"          # New column for values
  )
  
  # A tibble: 110 × 3
  #   position week  value
  #      <dbl> <chr> <chr>
  # 1        1 23    min  
  # 2        1 24    mid  
  # 3        1 25    min  
  # 4        1 26    mid  
  # 5        1 27    min  
  # 6        1 28    min  
  # 7        1 29    min  
  # 8        1 30    min  
  # 9        1 31    min  
  # 10        1 32    mid  
  # ℹ 100 more rows
…
