…
```{r overhead, echo=FALSE, include=T, results='asis', message=F, warning=F}

# from ampelos-overhead.Rmd
# source('/Users/rcphelps/code/groq/bug-library.R') # for spiderArea()

weeks.vector <- getWeeks(bugs_all.df)

for (i in 1:length(weeks.vector)) {
  
  reducedData.df <- selectDataAcrossTransects(data=bugs_all.df, week=quo(weeks.vector[[i]]), species=quo(Thomisidae..crab.spider.))
  
  # # A tibble: 60 × 3
  ## Groups:   positionX [10]
  #   positionX   row totalSpiders
  #       <int> <int>        <int>
  # 1         4    48            1
  # 2         4    50            0
   #3         4    52            0
   #4         4    79            0
  # 5         4    81            2
  # 6         4    83            0
  # 7        16    48            3
  # 8        16    50            0
  # 9        16    52            2
  #10        16    79            3
  ## ℹ 50 more rows
  ## ℹ Use `print(n = ...)` to see more rows
…
