…
  column_repo.tibl <- tibble(
        column.name = character(),
        transect = character(),
        time = character(),
        week = character(),
        row = character() )
  
  for (i in 1:length(column_names)) {
    text <- column_names[[i]]
    parts <- strsplit(text, "\\.")[[1]]
    column_repo.tibl <- add_row(column_repo.tibl, column.name = column_names[[i]], transect = parts[[1]],
                                 time = parts[[2]], week = parts[[3]], row = parts[[4]])
  }
  # # A tibble: 133 × 5
  #    column.name        transect  time  week  row  
  #    <chr>              <chr>     <chr> <chr> <chr>
  #  1 oakMargin.pm.23.79 oakMargin pm    23    79   
  #  2 oakMargin.pm.23.81 oakMargin pm    23    81   
  #  3 oakMargin.pm.23.83 oakMargin pm    23    83   
  #  4 oakMargin.pm.24.80 oakMargin pm    24    80   
  #  5 oakMargin.pm.24.82 oakMargin pm    24    82   
  #  6 oakMargin.pm.24.84 oakMargin pm    24    84   
  #  7 oakMargin.pm.25.81 oakMargin pm    25    81   
  #  8 oakMargin.pm.25.83 oakMargin pm    25    83   
  #  9 oakMargin.pm.25.85 oakMargin pm    25    85   
  # 10 oakMargin.pm.26.83 oakMargin pm    26    83   
  # # ℹ 123 more rows
…
```{r wilcox-gg-SRT, echo=TRUE, include=TRUE, results='asis', message=F, warning=F}

  library(ggplot2)
  library(dplyr)
  library(tidyr)

  source('/Users/rcphelps/code/groq/bug-library.R') 
  
  setwd("/Users/rcphelps/code/groq")
  
  
  input_filename = "./metrics/wilcox.srt.output.csv"
  wilcoxon.SRT.gg.input.tibl <- dplyr::as_tibble(read.csv(input_filename, header=TRUE, row.names=NULL))
  
  # # A tibble: 129 × 4
  #    transect  time  week  p.value
  #    <chr>     <chr> <chr>   <dbl>
  #  1 oakMargin am    23       0.34
  #  2 oakMargin am    23       0.18
  #  3 oakMargin am    23       0.15
  #  4 oakMargin am    24       0.71
  #  5 oakMargin am    24       0.26
  #  6 oakMargin am    24       0.17
  #  7 oakMargin am    25       0.33
  #  8 oakMargin am    25       0.17
  #  9 oakMargin am    25       0.46
  # 10 oakMargin am    26       0.48
  # ℹ 119 more rows
  # ℹ Use `print(n = ...)` to see more rows
…
